test.vcd
$date
	Mon Sep 20 00:00:36 2021
$end
$version
	Icarus Verilog
$end
$timescale
	1s
$end
$scope module main $end
$var wire 2 ! bresp_m [1:0] $end
$var wire 1 " rst $end
$var wire 1 # wvalid_m $end
$var wire 64 $ wstrb_m [63:0] $end
$var wire 1 % wready_m $end
$var wire 1 & wlast_m $end
$var wire 16 ' wid_m [15:0] $end
$var wire 512 ( wdata_m [511:0] $end
$var wire 1 ) softreg_resp_valid $end
$var wire 64 * softreg_resp_data [63:0] $end
$var wire 1 + rvalid_m $end
$var wire 2 , rresp_m [1:0] $end
$var wire 1 - rready_m $end
$var wire 1 . rlast_m $end
$var wire 16 / rid_m [15:0] $end
$var wire 512 0 rdata_m [511:0] $end
$var wire 1 1 bvalid_m $end
$var wire 1 2 bready_m $end
$var wire 16 3 bid_m [15:0] $end
$var wire 1 4 awvalid_m $end
$var wire 3 5 awsize_m [2:0] $end
$var wire 1 6 awready_m $end
$var wire 8 7 awlen_m [7:0] $end
$var wire 16 8 awid_m [15:0] $end
$var wire 64 9 awaddr_m [63:0] $end
$var wire 1 : arvalid_m $end
$var wire 3 ; arsize_m [2:0] $end
$var wire 1 < arready_m $end
$var wire 8 = arlen_m [7:0] $end
$var wire 16 > arid_m [15:0] $end
$var wire 64 ? araddr_m [63:0] $end
$var reg 1 @ clk $end
$var reg 32 A count [31:0] $end
$var reg 32 B softreg_req_addr [31:0] $end
$var reg 64 C softreg_req_data [63:0] $end
$var reg 1 D softreg_req_isWrite $end
$var reg 1 E softreg_req_valid $end
$scope module ae $end
$var wire 16 F bid_m [15:0] $end
$var wire 2 G bresp_m [1:0] $end
$var wire 1 @ clk $end
$var wire 512 H rdata_m [511:0] $end
$var wire 16 I rid_m [15:0] $end
$var wire 1 " rst $end
$var wire 1 # wvalid_m $end
$var wire 64 J wstrb_m [63:0] $end
$var wire 1 % wready_m $end
$var wire 1 & wlast_m $end
$var wire 16 K wid_m [15:0] $end
$var wire 512 L wdata_m [511:0] $end
$var wire 1 + rvalid_m $end
$var wire 2 M rresp_m [1:0] $end
$var wire 1 - rready_m $end
$var wire 1 . rlast_m $end
$var wire 1 1 bvalid_m $end
$var wire 1 2 bready_m $end
$var wire 1 4 awvalid_m $end
$var wire 3 N awsize_m [2:0] $end
$var wire 1 6 awready_m $end
$var wire 8 O awlen_m [7:0] $end
$var wire 16 P awid_m [15:0] $end
$var wire 64 Q awaddr_m [63:0] $end
$var wire 1 : arvalid_m $end
$var wire 3 R arsize_m [2:0] $end
$var wire 1 < arready_m $end
$var wire 8 S arlen_m [7:0] $end
$var wire 16 T arid_m [15:0] $end
$var wire 3 U arbyte_addr [2:0] $end
$var wire 64 V araddr_m [63:0] $end
$var reg 2 W ar_state [1:0] $end
$var reg 64 X araddr [63:0] $end
$var reg 16 Y arid [15:0] $end
$var reg 8 Z arlen [7:0] $end
$var reg 3 [ arsize [2:0] $end
$var reg 2 \ aw_state [1:0] $end
$var reg 64 ] awaddr [63:0] $end
$var reg 16 ^ awid [15:0] $end
$var reg 8 _ awlen [7:0] $end
$var reg 3 ` awsize [2:0] $end
$var reg 512 a line [511:0] $end
$var reg 512 b rmem [511:0] $end
$scope begin genblk1[0] $end
$upscope $end
$scope begin genblk1[1] $end
$upscope $end
$scope begin genblk1[2] $end
$upscope $end
$scope begin genblk1[3] $end
$upscope $end
$scope begin genblk1[4] $end
$upscope $end
$scope begin genblk1[5] $end
$upscope $end
$scope begin genblk1[6] $end
$upscope $end
$scope begin genblk1[7] $end
$upscope $end
$scope begin genblk1[8] $end
$upscope $end
$scope begin genblk1[9] $end
$upscope $end
$scope begin genblk1[10] $end
$upscope $end
$scope begin genblk1[11] $end
$upscope $end
$scope begin genblk1[12] $end
$upscope $end
$scope begin genblk1[13] $end
$upscope $end
$scope begin genblk1[14] $end
$upscope $end
$scope begin genblk1[15] $end
$upscope $end
$scope begin genblk1[16] $end
$upscope $end
$scope begin genblk1[17] $end
$upscope $end
$scope begin genblk1[18] $end
$upscope $end
$scope begin genblk1[19] $end
$upscope $end
$scope begin genblk1[20] $end
$upscope $end
$scope begin genblk1[21] $end
$upscope $end
$scope begin genblk1[22] $end
$upscope $end
$scope begin genblk1[23] $end
$upscope $end
$scope begin genblk1[24] $end
$upscope $end
$scope begin genblk1[25] $end
$upscope $end
$scope begin genblk1[26] $end
$upscope $end
$scope begin genblk1[27] $end
$upscope $end
$scope begin genblk1[28] $end
$upscope $end
$scope begin genblk1[29] $end
$upscope $end
$scope begin genblk1[30] $end
$upscope $end
$scope begin genblk1[31] $end
$upscope $end
$scope begin genblk1[32] $end
$upscope $end
$scope begin genblk1[33] $end
$upscope $end
$scope begin genblk1[34] $end
$upscope $end
$scope begin genblk1[35] $end
$upscope $end
$scope begin genblk1[36] $end
$upscope $end
$scope begin genblk1[37] $end
$upscope $end
$scope begin genblk1[38] $end
$upscope $end
$scope begin genblk1[39] $end
$upscope $end
$scope begin genblk1[40] $end
$upscope $end
$scope begin genblk1[41] $end
$upscope $end
$scope begin genblk1[42] $end
$upscope $end
$scope begin genblk1[43] $end
$upscope $end
$scope begin genblk1[44] $end
$upscope $end
$scope begin genblk1[45] $end
$upscope $end
$scope begin genblk1[46] $end
$upscope $end
$scope begin genblk1[47] $end
$upscope $end
$scope begin genblk1[48] $end
$upscope $end
$scope begin genblk1[49] $end
$upscope $end
$scope begin genblk1[50] $end
$upscope $end
$scope begin genblk1[51] $end
$upscope $end
$scope begin genblk1[52] $end
$upscope $end
$scope begin genblk1[53] $end
$upscope $end
$scope begin genblk1[54] $end
$upscope $end
$scope begin genblk1[55] $end
$upscope $end
$scope begin genblk1[56] $end
$upscope $end
$scope begin genblk1[57] $end
$upscope $end
$scope begin genblk1[58] $end
$upscope $end
$scope begin genblk1[59] $end
$upscope $end
$scope begin genblk1[60] $end
$upscope $end
$scope begin genblk1[61] $end
$upscope $end
$scope begin genblk1[62] $end
$upscope $end
$scope begin genblk1[63] $end
$upscope $end
$upscope $end
$scope module pagerank $end
$var wire 1 < arready_m $end
$var wire 1 6 awready_m $end
$var wire 16 c bid_m [15:0] $end
$var wire 2 d bresp_m [1:0] $end
$var wire 1 1 bvalid_m $end
$var wire 1 @ clk $end
$var wire 512 e rdata_m [511:0] $end
$var wire 16 f rid_m [15:0] $end
$var wire 1 . rlast_m $end
$var wire 2 g rresp_m [1:0] $end
$var wire 1 " rst $end
$var wire 1 + rvalid_m $end
$var wire 32 h softreg_req_addr [31:0] $end
$var wire 64 i softreg_req_data [63:0] $end
$var wire 1 D softreg_req_isWrite $end
$var wire 1 E softreg_req_valid $end
$var wire 64 j softreg_resp_data [63:0] $end
$var wire 1 ) softreg_resp_valid $end
$var wire 1 % wready_m $end
$var wire 1 k vert_fifo_rdreq $end
$var wire 64 l vert_fifo_out [63:0] $end
$var wire 1 m vert_fifo_full $end
$var wire 1 n vert_fifo_empty $end
$var reg 64 o araddr_m [63:0] $end
$var reg 16 p arid_m [15:0] $end
$var reg 8 q arlen_m [7:0] $end
$var reg 3 r arsize_m [2:0] $end
$var reg 1 : arvalid_m $end
$var reg 64 s awaddr_m [63:0] $end
$var reg 16 t awid_m [15:0] $end
$var reg 8 u awlen_m [7:0] $end
$var reg 3 v awsize_m [2:0] $end
$var reg 1 4 awvalid_m $end
$var reg 1 2 bready_m $end
$var reg 8 w count [7:0] $end
$var reg 1 x done_init $end
$var reg 64 y ie_addr [63:0] $end
$var reg 64 z ie_base_addr [63:0] $end
$var reg 4 { ie_batch [3:0] $end
$var reg 64 | ie_to_fetch [63:0] $end
$var reg 64 } n_inedges [63:0] $end
$var reg 64 ~ n_vertices [63:0] $end
$var reg 8 !" pr_state [7:0] $end
$var reg 1 - rready_m $end
$var reg 64 "" sr_resp_data [63:0] $end
$var reg 1 #" sr_resp_valid $end
$var reg 64 $" v_addr [63:0] $end
$var reg 64 %" v_base_addr [63:0] $end
$var reg 64 &" vert_fifo_in [63:0] $end
$var reg 1 '" vert_fifo_wrreq $end
$var reg 64 (" vert_to_fetch [63:0] $end
$var reg 512 )" wdata_m [511:0] $end
$var reg 16 *" wid_m [15:0] $end
$var reg 1 & wlast_m $end
$var reg 64 +" write_addr0 [63:0] $end
$var reg 64 ," write_addr1 [63:0] $end
$var reg 64 -" wstrb_m [63:0] $end
$var reg 1 # wvalid_m $end
$scope module vertex_fifo $end
$var wire 1 ." clk $end
$var wire 1 @ clock $end
$var wire 64 /" data [63:0] $end
$var wire 64 0" din [63:0] $end
$var wire 64 1" dout [63:0] $end
$var wire 1 n empty $end
$var wire 1 m full $end
$var wire 64 2" q [63:0] $end
$var wire 1 k rdreq $end
$var wire 1 3" reset_n $end
$var wire 1 4" rst $end
$var wire 1 '" wrreq $end
$var wire 1 5" full_ $end
$var wire 1 6" empty_ $end
$var reg 4 7" rd_ptr [3:0] $end
$var reg 5 8" size [4:0] $end
$var reg 4 9" wr_ptr [3:0] $end
$upscope $end
$upscope $end
$upscope $end
$enddefinitions $end
#0
$dumpvars
b0 9"
b0 8"
b0 7"
16"
05"
z4"
z3"
bx 2"
bx 1"
bx 0"
bx /"
0."
bx -"
bx ,"
bx +"
bx *"
bx )"
bx ("
0'"
bx &"
b10 %"
bx $"
x#"
bx ""
b0 !"
bx ~
bx }
bx |
bx {
bx z
bx y
0x
b0 w
bx v
bx u
bx t
bx s
b100 r
b0 q
b0 p
b0 o
1n
0m
bx l
0k
bx j
b0 i
b0 h
bx0 g
bx f
bx e
b0 d
bx c
bx b
bx a
bx `
bx _
bx ^
bx ]
b0 \
bx [
bx Z
bx Y
bx X
b0 W
b0 V
bx U
b0 T
b0 S
b100 R
bx Q
bx P
bx O
bx N
bx0 M
bx L
bx K
bx J
bx I
bx H
b0 G
bx F
0E
0D
b0 C
b0 B
b0 A
0@
b0 ?
b0 >
b0 =
1<
b100 ;
1:
bx 9
bx 8
bx 7
16
bx 5
x4
bx 3
x2
01
bx 0
bx /
x.
1-
bx0 ,
0+
bx *
x)
bx (
bx '
x&
0%
bx $
x#
z"
b0 !
$end
#5
b1010 0"
b1010 &"
b1010 /"
b0 ,
b0 M
b0 g
b10100000000000000000000000000000000000000000000000000000000000110101000000000000000000000000000000000000000000000000000000000000000000000000000000000000000000000000000000000000000000000000000001010000000000000000000000000000000000000000000000000000000000001100000000000000000000000000000000000000000000000000000000000001001000000000000000000000000000000000000000000000000000000000000110000000000000000000000000000000000000000000000000000000000000011101 0
b10100000000000000000000000000000000000000000000000000000000000110101000000000000000000000000000000000000000000000000000000000000000000000000000000000000000000000000000000000000000000000000000001010000000000000000000000000000000000000000000000000000000000001100000000000000000000000000000000000000000000000000000000000001001000000000000000000000000000000000000000000000000000000000000110000000000000000000000000000000000000000000000000000000000000011101 H
b10100000000000000000000000000000000000000000000000000000000000110101000000000000000000000000000000000000000000000000000000000000000000000000000000000000000000000000000000000000000000000000000001010000000000000000000000000000000000000000000000000000000000001100000000000000000000000000000000000000000000000000000000000001001000000000000000000000000000000000000000000000000000000000000110000000000000000000000000000000000000000000000000000000000000011101 e
b10100000000000000000000000000000000000000000000000000000000000110101000000000000000000000000000000000000000000000000000000000000000000000000000000000000000000000000000000000000000000000000000001010000000000000000000000000000000000000000000000000000000000001100000000000000000000000000000000000000000000000000000000000001001000000000000000000000000000000000000000000000000000000000000110000000000000000000000000000000000000000000000000000000000000011101 b
b0 U
1:
b100 ;
b100 R
b100 r
0<
1+
b1 W
b100 [
1.
b0 Z
b0 X
b0 /
b0 I
b0 f
b0 Y
0)
0#"
b1 A
1."
1@
#10
0."
0@
#15
b100100 0"
b100100 &"
b100100 /"
b1001000000000000000000000000000000000000000000000000000000000000100111000000000000000000000000000000000000000000000000000000000010101000000000000000000000000000000000000000000000000000000000001100010000000000000000000000000000000000000000000000000000000000000010000000000000000000000000000000000000000000000000000000000000010100000000000000000000000000000000000000000000000000000000000001100000000000000000000000000000000000000000000000000000000000000111 0
b1001000000000000000000000000000000000000000000000000000000000000100111000000000000000000000000000000000000000000000000000000000010101000000000000000000000000000000000000000000000000000000000001100010000000000000000000000000000000000000000000000000000000000000010000000000000000000000000000000000000000000000000000000000000010100000000000000000000000000000000000000000000000000000000000001100000000000000000000000000000000000000000000000000000000000000111 H
b1001000000000000000000000000000000000000000000000000000000000000100111000000000000000000000000000000000000000000000000000000000010101000000000000000000000000000000000000000000000000000000000001100010000000000000000000000000000000000000000000000000000000000000010000000000000000000000000000000000000000000000000000000000000010100000000000000000000000000000000000000000000000000000000000001100000000000000000000000000000000000000000000000000000000000000111 e
b1001000000000000000000000000000000000000000000000000000000000000100111000000000000000000000000000000000000000000000000000000000010101000000000000000000000000000000000000000000000000000000000001100010000000000000000000000000000000000000000000000000000000000000010000000000000000000000000000000000000000000000000000000000000010100000000000000000000000000000000000000000000000000000000000001100000000000000000000000000000000000000000000000000000000000000111 b
0:
b11 ;
b11 R
b11 r
b10 A
1x
b1 !"
b11101010 z
b110101 }
b1010 ~
b1000000 X
0.
b11111111 Z
1<
0+
b0 W
1."
1@
#20
0."
0@
#25
1:
b10 ?
b10 V
b10 o
b100000000 C
b100000000 i
b11 B
b11 h
1D
1E
b10 !"
b100 {
b110101 |
b11101010 y
b1010 ("
b10 $"
b1011100010 ,"
b1010010010 +"
b11 A
1."
1@
#30
0."
0@
#35
b0 C
b0 i
b0 B
b0 h
0D
0E
b0 0"
b0 &"
b0 /"
1'"
0:
b0 ?
b0 V
b0 o
b1010 0
b1010 H
b1010 e
b1010 b
b100 A
b100000000 +"
b100 !"
b1001 ("
b10000010 $"
0<
1+
b1 W
b11 [
1.
b0 Z
b10 X
1."
1@
#40
0."
0@
#45
b100100 0
b100100 H
b100100 e
b100100 b
1:
b10000010 ?
b10000010 V
b10000010 o
0'"
b1000010 X
0.
b11111111 Z
1<
0+
b0 W
b10 !"
b101 A
b1 9"
b0 l
b0 2"
b0 1"
1k
0n
06"
b1 8"
1."
1@
#50
0."
0@
#55
1'"
0:
b0 ?
b0 V
b0 o
b1001 0
b1001 H
b1001 e
b1001 b
b110 A
b1 w
b100 !"
b1000 ("
b100000010 $"
0<
1+
b1 W
1.
b0 Z
b10000010 X
bx l
bx 2"
bx 1"
b1 7"
0k
1n
16"
b0 8"
1."
1@
#60
0."
0@
#65
b0 0
b0 H
b0 e
b0 b
1:
b100000010 ?
b100000010 V
b100000010 o
0'"
b11000010 X
0.
b11111111 Z
1<
0+
b0 W
b10 !"
b111 A
b10 9"
b0 l
b0 2"
b0 1"
1k
0n
06"
b1 8"
1."
1@
#70
0."
0@
#75
1'"
0:
b0 ?
b0 V
b0 o
b10 0
b10 H
b10 e
b10 b
b1000 A
b10 w
b100 !"
b111 ("
b110000010 $"
0<
1+
b1 W
1.
b0 Z
b100000010 X
bx l
bx 2"
bx 1"
b10 7"
0k
1n
16"
b0 8"
1."
1@
#80
0."
0@
#85
b1001 0
b1001 H
b1001 e
b1001 b
1:
b110000010 ?
b110000010 V
b110000010 o
0'"
b101000010 X
0.
b11111111 Z
1<
0+
b0 W
b10 !"
b1001 A
b11 9"
b0 l
b0 2"
b0 1"
1k
0n
06"
b1 8"
1."
1@
#90
0."
0@
#95
1'"
0:
b0 ?
b0 V
b0 o
b0 0
b0 H
b0 e
b0 b
b1010 A
b11 w
b100 !"
b110 ("
b1000000010 $"
0<
1+
b1 W
1.
b0 Z
b110000010 X
bx l
bx 2"
bx 1"
b11 7"
0k
1n
16"
b0 8"
1."
1@
#100
0."
0@
#105
b10 0
b10 H
b10 e
b10 b
1:
b1000000010 ?
b1000000010 V
b1000000010 o
0'"
b111000010 X
0.
b11111111 Z
1<
0+
b0 W
b10 !"
b1011 A
b100 9"
b0 l
b0 2"
b0 1"
1k
0n
06"
b1 8"
1."
1@
#110
0."
0@
#115
1'"
0:
b0 ?
b0 V
b0 o
b1000 0
b1000 H
b1000 e
b1000 b
b1100 A
b100 w
b100 !"
b101 ("
b1010000010 $"
0<
1+
b1 W
1.
b0 Z
b1000000010 X
bx l
bx 2"
bx 1"
b100 7"
0k
1n
16"
b0 8"
1."
1@
#120
0."
0@
#125
b0 0
b0 H
b0 e
b0 b
1:
b1010000010 ?
b1010000010 V
b1010000010 o
0'"
b1001000010 X
0.
b11111111 Z
1<
0+
b0 W
b10 !"
b1101 A
b101 9"
b0 l
b0 2"
b0 1"
1k
0n
06"
b1 8"
1."
1@
#130
0."
0@
#135
1'"
0:
b0 ?
b0 V
b0 o
b0xxxxxxxxxxxxxxxxxxxxxxxxxxxxxxxxxxxxxxxxxxxxxxxxxxxxxxxxxxxxxxxx 0
b0xxxxxxxxxxxxxxxxxxxxxxxxxxxxxxxxxxxxxxxxxxxxxxxxxxxxxxxxxxxxxxxx H
b0xxxxxxxxxxxxxxxxxxxxxxxxxxxxxxxxxxxxxxxxxxxxxxxxxxxxxxxxxxxxxxxx e
b0xxxxxxxxxxxxxxxxxxxxxxxxxxxxxxxxxxxxxxxxxxxxxxxxxxxxxxxxxxxxxxxx b
b1110 A
b101 w
b100 !"
b100 ("
b1100000010 $"
0<
1+
b1 W
1.
b0 Z
b1010000010 X
bx l
bx 2"
bx 1"
b101 7"
0k
1n
16"
b0 8"
1."
1@
#140
0."
0@
#145
b0xxxxxxxxxxxxxxxxxxxxxxxxxxxxxxxxxxxxxxxxxxxxxxxxxxxxxxxxxxxxxxxx 0
b0xxxxxxxxxxxxxxxxxxxxxxxxxxxxxxxxxxxxxxxxxxxxxxxxxxxxxxxxxxxxxxxx H
b0xxxxxxxxxxxxxxxxxxxxxxxxxxxxxxxxxxxxxxxxxxxxxxxxxxxxxxxxxxxxxxxx e
b0xxxxxxxxxxxxxxxxxxxxxxxxxxxxxxxxxxxxxxxxxxxxxxxxxxxxxxxxxxxxxxxx b
1:
b1100000010 ?
b1100000010 V
b1100000010 o
0'"
b1011000010 X
0.
b11111111 Z
1<
0+
b0 W
b10 !"
b1111 A
b110 9"
b0 l
b0 2"
b0 1"
1k
0n
06"
b1 8"
1."
1@
#150
0."
0@
#155
1'"
0:
b0 ?
b0 V
b0 o
b0xxxxxxxxxxxxxxxxxxxxxxxxxxxxxxxxxxxxxxxxxxxxxxxxxxxxxxxxxxxxxxxx 0
b0xxxxxxxxxxxxxxxxxxxxxxxxxxxxxxxxxxxxxxxxxxxxxxxxxxxxxxxxxxxxxxxx H
b0xxxxxxxxxxxxxxxxxxxxxxxxxxxxxxxxxxxxxxxxxxxxxxxxxxxxxxxxxxxxxxxx e
b0xxxxxxxxxxxxxxxxxxxxxxxxxxxxxxxxxxxxxxxxxxxxxxxxxxxxxxxxxxxxxxxx b
b10000 A
b110 w
b100 !"
b11 ("
b1110000010 $"
0<
1+
b1 W
1.
b0 Z
b1100000010 X
bx l
bx 2"
bx 1"
b110 7"
0k
1n
16"
b0 8"
1."
1@
#160
0."
0@
#165
b0xxxxxxxxxxxxxxxxxxxxxxxxxxxxxxxxxxxxxxxxxxxxxxxxxxxxxxxxxxxxxxxx 0
b0xxxxxxxxxxxxxxxxxxxxxxxxxxxxxxxxxxxxxxxxxxxxxxxxxxxxxxxxxxxxxxxx H
b0xxxxxxxxxxxxxxxxxxxxxxxxxxxxxxxxxxxxxxxxxxxxxxxxxxxxxxxxxxxxxxxx e
b0xxxxxxxxxxxxxxxxxxxxxxxxxxxxxxxxxxxxxxxxxxxxxxxxxxxxxxxxxxxxxxxx b
1:
b1110000010 ?
b1110000010 V
b1110000010 o
0'"
b1101000010 X
0.
b11111111 Z
1<
0+
b0 W
b10 !"
b10001 A
b111 9"
b0 l
b0 2"
b0 1"
1k
0n
06"
b1 8"
1."
1@
#170
0."
0@
#175
1'"
0:
b0 ?
b0 V
b0 o
b0xxxxxxxxxxxxxxxxxxxxxxxxxxxxxxxxxxxxxxxxxxxxxxxxxxxxxxxxxxxxxxxx 0
b0xxxxxxxxxxxxxxxxxxxxxxxxxxxxxxxxxxxxxxxxxxxxxxxxxxxxxxxxxxxxxxxx H
b0xxxxxxxxxxxxxxxxxxxxxxxxxxxxxxxxxxxxxxxxxxxxxxxxxxxxxxxxxxxxxxxx e
b0xxxxxxxxxxxxxxxxxxxxxxxxxxxxxxxxxxxxxxxxxxxxxxxxxxxxxxxxxxxxxxxx b
b10010 A
b111 w
b100 !"
b10 ("
b10000000010 $"
0<
1+
b1 W
1.
b0 Z
b1110000010 X
bx l
bx 2"
bx 1"
b111 7"
0k
1n
16"
b0 8"
1."
1@
#180
0."
0@
#185
b0xxxxxxxxxxxxxxxxxxxxxxxxxxxxxxxxxxxxxxxxxxxxxxxxxxxxxxxxxxxxxxxx 0
b0xxxxxxxxxxxxxxxxxxxxxxxxxxxxxxxxxxxxxxxxxxxxxxxxxxxxxxxxxxxxxxxx H
b0xxxxxxxxxxxxxxxxxxxxxxxxxxxxxxxxxxxxxxxxxxxxxxxxxxxxxxxxxxxxxxxx e
b0xxxxxxxxxxxxxxxxxxxxxxxxxxxxxxxxxxxxxxxxxxxxxxxxxxxxxxxxxxxxxxxx b
1:
b10000000010 ?
b10000000010 V
b10000000010 o
0'"
b1111000010 X
0.
b11111111 Z
1<
0+
b0 W
b10 !"
b10011 A
b1000 9"
b0 l
b0 2"
b0 1"
1k
0n
06"
b1 8"
1."
1@
#190
0."
0@
#195
1'"
0:
b0 ?
b0 V
b0 o
b0xxxxxxxxxxxxxxxxxxxxxxxxxxxxxxxxxxxxxxxxxxxxxxxxxxxxxxxxxxxxxxxx 0
b0xxxxxxxxxxxxxxxxxxxxxxxxxxxxxxxxxxxxxxxxxxxxxxxxxxxxxxxxxxxxxxxx H
b0xxxxxxxxxxxxxxxxxxxxxxxxxxxxxxxxxxxxxxxxxxxxxxxxxxxxxxxxxxxxxxxx e
b0xxxxxxxxxxxxxxxxxxxxxxxxxxxxxxxxxxxxxxxxxxxxxxxxxxxxxxxxxxxxxxxx b
b10100 A
b1000 w
b100 !"
b1 ("
b10010000010 $"
0<
1+
b1 W
1.
b0 Z
b10000000010 X
bx l
bx 2"
bx 1"
b1000 7"
0k
1n
16"
b0 8"
1."
1@
#200
0."
0@
#205
b0xxxxxxxxxxxxxxxxxxxxxxxxxxxxxxxxxxxxxxxxxxxxxxxxxxxxxxxxxxxxxxxx 0
b0xxxxxxxxxxxxxxxxxxxxxxxxxxxxxxxxxxxxxxxxxxxxxxxxxxxxxxxxxxxxxxxx H
b0xxxxxxxxxxxxxxxxxxxxxxxxxxxxxxxxxxxxxxxxxxxxxxxxxxxxxxxxxxxxxxxx e
b0xxxxxxxxxxxxxxxxxxxxxxxxxxxxxxxxxxxxxxxxxxxxxxxxxxxxxxxxxxxxxxxx b
1:
b10010000010 ?
b10010000010 V
b10010000010 o
0'"
b10001000010 X
0.
b11111111 Z
1<
0+
b0 W
b10 !"
b10101 A
b1001 9"
b0 l
b0 2"
b0 1"
1k
0n
06"
b1 8"
1."
1@
#210
0."
0@
#215
1'"
0:
b0 ?
b0 V
b0 o
b0xxxxxxxxxxxxxxxxxxxxxxxxxxxxxxxxxxxxxxxxxxxxxxxxxxxxxxxxxxxxxxxx 0
b0xxxxxxxxxxxxxxxxxxxxxxxxxxxxxxxxxxxxxxxxxxxxxxxxxxxxxxxxxxxxxxxx H
b0xxxxxxxxxxxxxxxxxxxxxxxxxxxxxxxxxxxxxxxxxxxxxxxxxxxxxxxxxxxxxxxx e
b0xxxxxxxxxxxxxxxxxxxxxxxxxxxxxxxxxxxxxxxxxxxxxxxxxxxxxxxxxxxxxxxx b
b10110 A
b1001 w
b100 !"
b0 ("
b10100000010 $"
0<
1+
b1 W
1.
b0 Z
b10010000010 X
bx l
bx 2"
bx 1"
b1001 7"
0k
1n
16"
b0 8"
1."
1@
#220
0."
0@
#225
b0xxxxxxxxxxxxxxxxxxxxxxxxxxxxxxxxxxxxxxxxxxxxxxxxxxxxxxxxxxxxxxxx 0
b0xxxxxxxxxxxxxxxxxxxxxxxxxxxxxxxxxxxxxxxxxxxxxxxxxxxxxxxxxxxxxxxx H
b0xxxxxxxxxxxxxxxxxxxxxxxxxxxxxxxxxxxxxxxxxxxxxxxxxxxxxxxxxxxxxxxx e
b0xxxxxxxxxxxxxxxxxxxxxxxxxxxxxxxxxxxxxxxxxxxxxxxxxxxxxxxxxxxxxxxx b
0'"
b10011000010 X
0.
b11111111 Z
1<
0+
b0 W
b10111 A
b1010 9"
b0 l
b0 2"
b0 1"
1k
0n
06"
b1 8"
1."
1@
#230
0."
0@
#235
b11000 A
b1010 w
bx l
bx 2"
bx 1"
b1010 7"
0k
1n
16"
b0 8"
1."
1@
#240
0."
0@
#245
b11001 A
1."
1@
#250
0."
0@
#255
b11010 A
1."
1@
#260
0."
0@
#265
b11011 A
1."
1@
#270
0."
0@
#275
b11100 A
1."
1@
#280
0."
0@
#285
b11101 A
1."
1@
#290
0."
0@
#295
b11110 A
1."
1@
#300
0."
0@
#305
b11111 A
1."
1@
#310
0."
0@
#315
b100000 A
1."
1@
#320
0."
0@
#325
b100001 A
1."
1@
#330
0."
0@
#335
b100010 A
1."
1@
#340
0."
0@
#345
b100011 A
1."
1@
#350
0."
0@
#355
b100100 A
1."
1@
#360
0."
0@
#365
b100101 A
1."
1@
#370
0."
0@
#375
b100110 A
1."
1@
#380
0."
0@
#385
b100111 A
1."
1@
#390
0."
0@
#395
b101000 A
1."
1@
#400
0."
0@
#405
b101001 A
1."
1@
#410
0."
0@
#415
b101010 A
1."
1@
#420
0."
0@
#425
b101011 A
1."
1@
#430
0."
0@
#435
b101100 A
1."
1@
#440
0."
0@
#445
b101101 A
1."
1@
#450
0."
0@
#455
b101110 A
1."
1@
#460
0."
0@
#465
b101111 A
1."
1@
#470
0."
0@
#475
b110000 A
1."
1@
#480
0."
0@
#485
b110001 A
1."
1@
#490
0."
0@
#495
b110010 A
1."
1@
#500
0."
0@
#505
b110011 A
1."
1@
#510
0."
0@
#515
b110100 A
1."
1@
#520
0."
0@
#525
b110101 A
1."
1@
#530
0."
0@
#535
b110110 A
1."
1@
#540
0."
0@
#545
b110111 A
1."
1@
#550
0."
0@
#555
b111000 A
1."
1@
#560
0."
0@
#565
b111001 A
1."
1@
#570
0."
0@
#575
b111010 A
1."
1@
#580
0."
0@
#585
b111011 A
1."
1@
#590
0."
0@
#595
b111100 A
1."
1@
#600
0."
0@
#605
b111101 A
1."
1@
#610
0."
0@
#615
b111110 A
1."
1@
#620
0."
0@
#625
b111111 A
1."
1@
#630
0."
0@
#635
b1000000 A
1."
1@
#640
0."
0@
#645
b1000001 A
1."
1@
#650
0."
0@
#655
b1000010 A
1."
1@
#660
0."
0@
#665
b1000011 A
1."
1@
#670
0."
0@
#675
b1000100 A
1."
1@
#680
0."
0@
#685
b1000101 A
1."
1@
#690
0."
0@
#695
b1000110 A
1."
1@
#700
0."
0@
#705
b1000111 A
1."
1@
#710
0."
0@
#715
b1001000 A
1."
1@
#720
0."
0@
#725
b1001001 A
1."
1@
#730
0."
0@
#735
b1001010 A
1."
1@
#740
0."
0@
#745
b1001011 A
1."
1@
#750
0."
0@
#755
b1001100 A
1."
1@
#760
0."
0@
#765
b1001101 A
1."
1@
#770
0."
0@
#775
b1001110 A
1."
1@
#780
0."
0@
#785
b1001111 A
1."
1@
#790
0."
0@
#795
b1010000 A
1."
1@
#800
0."
0@
#805
b1010001 A
1."
1@
#810
0."
0@
#815
b1010010 A
1."
1@
#820
0."
0@
#825
b1010011 A
1."
1@
#830
0."
0@
#835
b1010100 A
1."
1@
#840
0."
0@
#845
b1010101 A
1."
1@
#850
0."
0@
#855
b1010110 A
1."
1@
#860
0."
0@
#865
b1010111 A
1."
1@
#870
0."
0@
#875
b1011000 A
1."
1@
#880
0."
0@
#885
b1011001 A
1."
1@
#890
0."
0@
#895
b1011010 A
1."
1@
#900
0."
0@
#905
b1011011 A
1."
1@
#910
0."
0@
#915
b1011100 A
1."
1@
#920
0."
0@
#925
b1011101 A
1."
1@
#930
0."
0@
#935
b1011110 A
1."
1@
#940
0."
0@
#945
b1011111 A
1."
1@
#950
0."
0@
#955
b1100000 A
1."
1@
#960
0."
0@
#965
b1100001 A
1."
1@
#970
0."
0@
#975
b1100010 A
1."
1@
#980
0."
0@
#985
b1100011 A
1."
1@
#990
0."
0@
#995
b1100100 A
1."
1@
#1000
0."
0@
#1005
b1100101 A
1."
1@
#1010
0."
0@
#1015
b1100110 A
1."
1@
#1020
0."
0@
#1025
b1100111 A
1."
1@
#1030
0."
0@
#1035
b1101000 A
1."
1@
#1040
0."
0@
#1045
b1101001 A
1."
1@
#1050
0."
0@
#1055
b1101010 A
1."
1@
#1060
0."
0@
#1065
b1101011 A
1."
1@
#1070
0."
0@
#1075
b1101100 A
1."
1@
#1080
0."
0@
#1085
b1101101 A
1."
1@
#1090
0."
0@
#1095
b1101110 A
1."
1@
#1100
0."
0@
#1105
b1101111 A
1."
1@
#1110
0."
0@
#1115
b1110000 A
1."
1@
#1120
0."
0@
#1125
b1110001 A
1."
1@
#1130
0."
0@
#1135
b1110010 A
1."
1@
#1140
0."
0@
#1145
b1110011 A
1."
1@
#1150
0."
0@
#1155
b1110100 A
1."
1@
#1160
0."
0@
#1165
b1110101 A
1."
1@
#1170
0."
0@
#1175
b1110110 A
1."
1@
#1180
0."
0@
#1185
b1110111 A
1."
1@
#1190
0."
0@
#1195
b1111000 A
1."
1@
#1200
0."
0@
#1205
b1111001 A
1."
1@
#1210
0."
0@
#1215
b1111010 A
1."
1@
#1220
0."
0@
#1225
b1111011 A
1."
1@
#1230
0."
0@
#1235
b1111100 A
1."
1@
#1240
0."
0@
#1245
b1111101 A
1."
1@
#1250
0."
0@
#1255
b1111110 A
1."
1@
#1260
0."
0@
#1265
b1111111 A
1."
1@
#1270
0."
0@
#1275
b10000000 A
1."
1@
#1280
0."
0@
#1285
b10000001 A
1."
1@
